module easy_loader

go 1.17

require (
	github.com/go-telegram-bot-api/telegram-bot-api/v5 v5.5.1
	github.com/pkg/errors v0.8.1
	github.com/sirupsen/logrus v1.8.1
	github.com/spf13/viper v1.10.1
)

require (
	github.com/fsnotify/fsnotify v1.5.1 // indirect
	github.com/google/uuid v1.3.0 // indirect
	github.com/hashicorp/hcl v1.0.0 // indirect
	github.com/magiconair/properties v1.8.5 // indirect
	github.com/mitchellh/mapstructure v1.4.3 // indirect
	github.com/pelletier/go-toml v1.9.4 // indirect
	github.com/spf13/afero v1.6.0 // indirect
	github.com/spf13/cast v1.4.1 // indirect
	github.com/spf13/jwalterweatherman v1.1.0 // indirect
	github.com/spf13/pflag v1.0.5 // indirect
	github.com/subosito/gotenv v1.2.0 // indirect
	go.uber.org/atomic v1.6.0 // indirect
	go.uber.org/dig v1.12.0 // indirect
	go.uber.org/fx v1.16.0 // indirect
	go.uber.org/multierr v1.5.0 // indirect
	go.uber.org/zap v1.16.0 // indirect
	golang.org/x/sys v0.0.0-20211216021012-1d35b9e2eb4e // indirect
	golang.org/x/text v0.3.7 // indirect
	gopkg.in/ini.v1 v1.66.2 // indirect
	gopkg.in/yaml.v2 v2.4.0 // indirect
)
